^C:\USERS\JRADO\SOURCE\REPOS\OS_FILESYSTEM\OS_FILESYSTEM\DEBUG\BITVEKTOR.OBJ|C:\USERS\JRADO\SOURCE\REPOS\OS_FILESYSTEM\OS_FILESYSTEM\DEBUG\FILE.OBJ|C:\USERS\JRADO\SOURCE\REPOS\OS_FILESYSTEM\OS_FILESYSTEM\DEBUG\FS.OBJ|C:\USERS\JRADO\SOURCE\REPOS\OS_FILESYSTEM\OS_FILESYSTEM\DEBUG\INDEXALLOC.OBJ|C:\USERS\JRADO\SOURCE\REPOS\OS_FILESYSTEM\OS_FILESYSTEM\DEBUG\KERNELFILE.OBJ|C:\USERS\JRADO\SOURCE\REPOS\OS_FILESYSTEM\OS_FILESYSTEM\DEBUG\KERNELFS.OBJ|C:\USERS\JRADO\SOURCE\REPOS\OS_FILESYSTEM\OS_FILESYSTEM\DEBUG\MAIN.OBJ|C:\USERS\JRADO\SOURCE\REPOS\OS_FILESYSTEM\OS_FILESYSTEM\DEBUG\NIT1.OBJ|C:\USERS\JRADO\SOURCE\REPOS\OS_FILESYSTEM\OS_FILESYSTEM\DEBUG\NIT2.OBJ|C:\USERS\JRADO\SOURCE\REPOS\OS_FILESYSTEM\OS_FILESYSTEM\DEBUG\RES.RES
/OUT:"C:\USERS\JRADO\SOURCE\REPOS\OS_FILESYSTEM\DEBUG\OS_FILESYSTEM.EXE" /INCREMENTAL /NOLOGO PARTICIJA.LIB KERNEL32.LIB USER32.LIB GDI32.LIB WINSPOOL.LIB COMDLG32.LIB ADVAPI32.LIB SHELL32.LIB OLE32.LIB OLEAUT32.LIB UUID.LIB ODBC32.LIB ODBCCP32.LIB /MANIFEST /MANIFESTUAC:"level='asInvoker' uiAccess='false'" /manifest:embed /DEBUG:FASTLINK /PDB:"C:\USERS\JRADO\SOURCE\REPOS\OS_FILESYSTEM\DEBUG\OS_FILESYSTEM.PDB" /SUBSYSTEM:CONSOLE /TLBID:1 /DYNAMICBASE /NXCOMPAT /IMPLIB:"C:\USERS\JRADO\SOURCE\REPOS\OS_FILESYSTEM\DEBUG\OS_FILESYSTEM.LIB" /MACHINE:X86 DEBUG\RES.RES
DEBUG\BITVEKTOR.OBJ
DEBUG\FILE.OBJ
DEBUG\FS.OBJ
DEBUG\INDEXALLOC.OBJ
DEBUG\KERNELFILE.OBJ
DEBUG\KERNELFS.OBJ
DEBUG\MAIN.OBJ
DEBUG\NIT1.OBJ
DEBUG\NIT2.OBJ
