^C:\USERS\JRADO\SOURCE\REPOS\OS_FILESYSTEM\OS_FILESYSTEM\DEBUG\BITVEKTOR.OBJ|C:\USERS\JRADO\SOURCE\REPOS\OS_FILESYSTEM\OS_FILESYSTEM\DEBUG\FILE.OBJ|C:\USERS\JRADO\SOURCE\REPOS\OS_FILESYSTEM\OS_FILESYSTEM\DEBUG\FS.OBJ|C:\USERS\JRADO\SOURCE\REPOS\OS_FILESYSTEM\OS_FILESYSTEM\DEBUG\INDEXALLOC.OBJ|C:\USERS\JRADO\SOURCE\REPOS\OS_FILESYSTEM\OS_FILESYSTEM\DEBUG\KERNELFILE.OBJ|C:\USERS\JRADO\SOURCE\REPOS\OS_FILESYSTEM\OS_FILESYSTEM\DEBUG\KERNELFS.OBJ|C:\USERS\JRADO\SOURCE\REPOS\OS_FILESYSTEM\OS_FILESYSTEM\DEBUG\MAIN.OBJ|C:\USERS\JRADO\SOURCE\REPOS\OS_FILESYSTEM\OS_FILESYSTEM\DEBUG\NIT1.OBJ|C:\USERS\JRADO\SOURCE\REPOS\OS_FILESYSTEM\OS_FILESYSTEM\DEBUG\NIT2.OBJ|C:\USERS\JRADO\SOURCE\REPOS\OS_FILESYSTEM\OS_FILESYSTEM\DEBUG\RES.RES
C:\USERS\JRADO\SOURCE\REPOS\OS_FILESYSTEM\DEBUG\OS_FILESYSTEM.EXE
C:\USERS\JRADO\SOURCE\REPOS\OS_FILESYSTEM\DEBUG\OS_FILESYSTEM.ILK
C:\USERS\JRADO\SOURCE\REPOS\OS_FILESYSTEM\DEBUG\OS_FILESYSTEM.PDB
